{
  "name": "<%= tagName %>",
  "main": "src/<%= tagName %>.js",
  "module": "src/<%= tagName %>.js",
  "files": [
    "src"
  ],
  "version": "0.0.0",
  "description": "Webcomponent <%= tagName %> with lit-element and open-wc recommendations",
  "license": "MIT",
  "dependencies": {
    "lit-element": "^2.0.1"
  }
}